EESchema Schematic File Version 2
LIBS:insoladora_v1-rescue
LIBS:power
LIBS:device
LIBS:transistors
LIBS:conn
LIBS:linear
LIBS:regul
LIBS:74xx
LIBS:cmos4000
LIBS:adc-dac
LIBS:memory
LIBS:xilinx
LIBS:microcontrollers
LIBS:dsp
LIBS:microchip
LIBS:analog_switches
LIBS:motorola
LIBS:texas
LIBS:intel
LIBS:audio
LIBS:interface
LIBS:digital-audio
LIBS:philips
LIBS:display
LIBS:cypress
LIBS:siliconi
LIBS:opto
LIBS:atmel
LIBS:contrib
LIBS:valves
LIBS:microchip_pic16mcu
LIBS:w_analog
LIBS:w_connectors
LIBS:w_device
LIBS:w_logic
LIBS:w_memory
LIBS:w_microcontrollers
LIBS:w_opto
LIBS:w_relay
LIBS:w_rtx
LIBS:w_transistor
LIBS:w_vacuum
LIBS:insoladora_v1-cache
EELAYER 25 0
EELAYER END
$Descr USLetter 11000 8500
encoding utf-8
Sheet 1 2
Title "Insoldara"
Date ""
Rev "1"
Comp "Rootdevel"
Comment1 "Hackersapce"
Comment2 "@fAndrEs"
Comment3 "@mau_rinc2010"
Comment4 ""
$EndDescr
$Comp
L PIC16F84A-XX/P-RESCUE-insoladora_v1 U1
U 1 1 587951BF
P 3600 3300
F 0 "U1" H 3700 4200 50  0000 L CNN
F 1 "PIC16F84A" H 3700 4100 50  0000 L CNN
F 2 "Housings_DIP:DIP-18_W7.62mm_Socket" H 3600 3300 50  0001 C CIN
F 3 "" H 3600 3300 50  0000 C CNN
	1    3600 3300
	1    0    0    -1  
$EndComp
$Comp
L LCD-016N002L DS1
U 1 1 5879582B
P 6150 3450
F 0 "DS1" H 5350 3850 50  0000 C CNN
F 1 "LCD-16X2" H 6850 3850 50  0000 C CNN
F 2 "Connectors_JST:JST_PH_S16B-PH-K_16x2.00mm_Angled" H 6150 3400 50  0000 C CIN
F 3 "" H 6150 3450 50  0000 C CNN
	1    6150 3450
	0    1    1    0   
$EndComp
NoConn ~ 5550 3600
NoConn ~ 5550 3500
NoConn ~ 5550 3400
NoConn ~ 5550 3300
Text Label 4500 3700 0    60   ~ 0
LCD_D4
Text Label 5450 4000 2    60   ~ 0
LCD_D7
Text Label 5450 3900 2    60   ~ 0
LCD_D6
Text Label 5450 3800 2    60   ~ 0
LCD_D5
Text Label 5450 3700 2    60   ~ 0
LCD_D4
Text Label 5450 3200 2    60   ~ 0
LCD_E
Text Label 5450 3000 2    60   ~ 0
LCD_RS
Text Label 4500 3600 0    60   ~ 0
LCD_E
Text Label 4500 3500 0    60   ~ 0
LCD_RS
$Comp
L GND #PWR01
U 1 1 58795F02
P 5500 2650
F 0 "#PWR01" H 5500 2400 50  0001 C CNN
F 1 "GND" H 5500 2500 50  0000 C CNN
F 2 "" H 5500 2650 50  0000 C CNN
F 3 "" H 5500 2650 50  0000 C CNN
	1    5500 2650
	0    1    1    0   
$EndComp
$Comp
L GND #PWR02
U 1 1 58795F5D
P 5600 3100
F 0 "#PWR02" H 5600 2850 50  0001 C CNN
F 1 "GND" H 5600 2950 50  0000 C CNN
F 2 "" H 5600 3100 50  0000 C CNN
F 3 "" H 5600 3100 50  0000 C CNN
	1    5600 3100
	0    1    1    0   
$EndComp
$Comp
L GND #PWR03
U 1 1 58795FF2
P 3600 4450
F 0 "#PWR03" H 3600 4200 50  0001 C CNN
F 1 "GND" H 3600 4300 50  0000 C CNN
F 2 "" H 3600 4450 50  0000 C CNN
F 3 "" H 3600 4450 50  0000 C CNN
	1    3600 4450
	1    0    0    -1  
$EndComp
$Comp
L POT-RESCUE-insoladora_v1 RV1
U 1 1 58796186
P 5600 2400
F 0 "RV1" H 5600 2320 50  0000 C CNN
F 1 "POT" H 5600 2400 50  0000 C CNN
F 2 "Potentiometers:Potentiometer_Bourns_3296W_3-8Zoll_Inline_ScrewUp" H 5600 2400 50  0001 C CNN
F 3 "" H 5600 2400 50  0000 C CNN
	1    5600 2400
	0    -1   -1   0   
$EndComp
Text Label 2700 2700 2    60   ~ 0
MCLR
Text Label 2700 2900 2    60   ~ 0
OSC1
Text Label 2700 3100 2    60   ~ 0
OSC2
$Comp
L Crystal Y1
U 1 1 58796BFD
P 1600 3100
F 0 "Y1" H 1600 3250 50  0000 C CNN
F 1 "Crystal" H 1600 2950 50  0000 C CNN
F 2 "Crystals:Crystal_HC49-4H_Vertical" H 1600 3100 50  0001 C CNN
F 3 "" H 1600 3100 50  0000 C CNN
	1    1600 3100
	0    1    1    0   
$EndComp
$Comp
L C_Small 22uF1
U 1 1 58796C2A
P 1500 2800
F 0 "22uF1" H 1510 2870 50  0000 L CNN
F 1 "22uF" H 1510 2720 50  0000 L CNN
F 2 "Capacitors_ThroughHole:C_Disc_D3_P2.5" H 1500 2800 50  0001 C CNN
F 3 "" H 1500 2800 50  0000 C CNN
	1    1500 2800
	0    -1   -1   0   
$EndComp
$Comp
L C_Small C1
U 1 1 58796C61
P 1500 3400
F 0 "C1" H 1510 3470 50  0000 L CNN
F 1 "22uF" H 1510 3320 50  0000 L CNN
F 2 "Capacitors_ThroughHole:C_Disc_D3_P2.5" H 1500 3400 50  0001 C CNN
F 3 "" H 1500 3400 50  0000 C CNN
	1    1500 3400
	0    1    1    0   
$EndComp
$Comp
L GND #PWR04
U 1 1 58796E21
P 1350 2800
F 0 "#PWR04" H 1350 2550 50  0001 C CNN
F 1 "GND" H 1350 2650 50  0000 C CNN
F 2 "" H 1350 2800 50  0000 C CNN
F 3 "" H 1350 2800 50  0000 C CNN
	1    1350 2800
	0    1    1    0   
$EndComp
$Comp
L GND #PWR05
U 1 1 58796E41
P 1350 3400
F 0 "#PWR05" H 1350 3150 50  0001 C CNN
F 1 "GND" H 1350 3250 50  0000 C CNN
F 2 "" H 1350 3400 50  0000 C CNN
F 3 "" H 1350 3400 50  0000 C CNN
	1    1350 3400
	0    1    1    0   
$EndComp
Text Label 1850 2850 0    60   ~ 0
OSC1
Text Label 1850 3400 0    60   ~ 0
OSC2
$Comp
L R 10k1
U 1 1 5879700F
P 1350 2150
F 0 "10k1" V 1430 2150 50  0000 C CNN
F 1 "10k" V 1350 2150 50  0000 C CNN
F 2 "Resistors_THT:R_Axial_DIN0207_L6.3mm_D2.5mm_P7.62mm_Horizontal" V 1280 2150 50  0001 C CNN
F 3 "" H 1350 2150 50  0000 C CNN
	1    1350 2150
	0    1    1    0   
$EndComp
$Comp
L SW_PUSH_SMALL_H SW1
U 1 1 58797036
P 1750 2150
F 0 "SW1" H 1830 2260 50  0000 C CNN
F 1 "SW_MCLR" H 1750 2350 50  0000 C CNN
F 2 "Buttons_Switches_THT:SW_PUSH_6mm_h5mm" H 1750 2350 50  0001 C CNN
F 3 "" H 1750 2350 50  0000 C CNN
	1    1750 2150
	1    0    0    -1  
$EndComp
$Comp
L GND #PWR06
U 1 1 58797071
P 2000 2150
F 0 "#PWR06" H 2000 1900 50  0001 C CNN
F 1 "GND" H 2000 2000 50  0000 C CNN
F 2 "" H 2000 2150 50  0000 C CNN
F 3 "" H 2000 2150 50  0000 C CNN
	1    2000 2150
	0    -1   -1   0   
$EndComp
Text Label 1850 2350 0    60   ~ 0
MCLR
Text Label 4500 3300 0    60   ~ 0
BUZZER
Text Label 4500 3400 0    60   ~ 0
RELAY
Text Label 4500 2700 0    60   ~ 0
PLAY/PAUSE
Text Label 4500 2800 0    60   ~ 0
STOP
Text Label 4500 2900 0    60   ~ 0
ADD
Text Label 4500 3000 0    60   ~ 0
SUB
Text Label 4500 3100 0    60   ~ 0
SELECT
$Comp
L R R6
U 1 1 58797DB7
P 8000 1900
F 0 "R6" V 8080 1900 50  0000 C CNN
F 1 "1k" V 8000 1900 50  0000 C CNN
F 2 "Resistors_THT:R_Axial_DIN0207_L6.3mm_D2.5mm_P7.62mm_Horizontal" V 7930 1900 50  0001 C CNN
F 3 "" H 8000 1900 50  0000 C CNN
	1    8000 1900
	0    1    1    0   
$EndComp
$Comp
L SW_PUSH_SMALL_H SW2
U 1 1 58797E21
P 8400 1750
F 0 "SW2" H 8480 1860 50  0000 C CNN
F 1 "SW_PLAY" H 8400 2000 50  0000 C CNN
F 2 "Buttons_Switches_THT:SW_PUSH_6mm_h8.5mm" H 8400 1950 50  0001 C CNN
F 3 "" H 8400 1950 50  0000 C CNN
	1    8400 1750
	1    0    0    -1  
$EndComp
$Comp
L R R11
U 1 1 58797EC2
P 8400 2050
F 0 "R11" V 8480 2050 50  0000 C CNN
F 1 "1k" V 8400 2050 50  0000 C CNN
F 2 "Resistors_THT:R_Axial_DIN0207_L6.3mm_D2.5mm_P7.62mm_Horizontal" V 8330 2050 50  0001 C CNN
F 3 "" H 8400 2050 50  0000 C CNN
	1    8400 2050
	0    1    1    0   
$EndComp
$Comp
L GND #PWR07
U 1 1 58797FC4
P 8700 1750
F 0 "#PWR07" H 8700 1500 50  0001 C CNN
F 1 "GND" H 8700 1600 50  0000 C CNN
F 2 "" H 8700 1750 50  0000 C CNN
F 3 "" H 8700 1750 50  0000 C CNN
	1    8700 1750
	0    -1   -1   0   
$EndComp
$Comp
L R R7
U 1 1 5879869C
P 8000 2700
F 0 "R7" V 8080 2700 50  0000 C CNN
F 1 "1k" V 8000 2700 50  0000 C CNN
F 2 "Resistors_THT:R_Axial_DIN0207_L6.3mm_D2.5mm_P7.62mm_Horizontal" V 7930 2700 50  0001 C CNN
F 3 "" H 8000 2700 50  0000 C CNN
	1    8000 2700
	0    1    1    0   
$EndComp
$Comp
L SW_PUSH_SMALL_H SW3
U 1 1 587986A2
P 8400 2550
F 0 "SW3" H 8480 2660 50  0000 C CNN
F 1 "SW_STOP" H 8400 2800 50  0000 C CNN
F 2 "Buttons_Switches_THT:SW_PUSH_6mm_h8.5mm" H 8400 2750 50  0001 C CNN
F 3 "" H 8400 2750 50  0000 C CNN
	1    8400 2550
	1    0    0    -1  
$EndComp
$Comp
L R R12
U 1 1 587986A8
P 8400 2850
F 0 "R12" V 8480 2850 50  0000 C CNN
F 1 "1k" V 8400 2850 50  0000 C CNN
F 2 "Resistors_THT:R_Axial_DIN0207_L6.3mm_D2.5mm_P7.62mm_Horizontal" V 8330 2850 50  0001 C CNN
F 3 "" H 8400 2850 50  0000 C CNN
	1    8400 2850
	0    1    1    0   
$EndComp
$Comp
L GND #PWR08
U 1 1 587986AE
P 8700 2550
F 0 "#PWR08" H 8700 2300 50  0001 C CNN
F 1 "GND" H 8700 2400 50  0000 C CNN
F 2 "" H 8700 2550 50  0000 C CNN
F 3 "" H 8700 2550 50  0000 C CNN
	1    8700 2550
	0    -1   -1   0   
$EndComp
$Comp
L R R8
U 1 1 58798B92
P 8000 3500
F 0 "R8" V 8080 3500 50  0000 C CNN
F 1 "1k" V 8000 3500 50  0000 C CNN
F 2 "Resistors_THT:R_Axial_DIN0207_L6.3mm_D2.5mm_P7.62mm_Horizontal" V 7930 3500 50  0001 C CNN
F 3 "" H 8000 3500 50  0000 C CNN
	1    8000 3500
	0    1    1    0   
$EndComp
$Comp
L SW_PUSH_SMALL_H SW4
U 1 1 58798B98
P 8400 3350
F 0 "SW4" H 8480 3460 50  0000 C CNN
F 1 "SW_ADD" H 8400 3600 50  0000 C CNN
F 2 "Buttons_Switches_THT:SW_PUSH_6mm_h8.5mm" H 8400 3550 50  0001 C CNN
F 3 "" H 8400 3550 50  0000 C CNN
	1    8400 3350
	1    0    0    -1  
$EndComp
$Comp
L R R13
U 1 1 58798B9E
P 8400 3650
F 0 "R13" V 8480 3650 50  0000 C CNN
F 1 "1k" V 8400 3650 50  0000 C CNN
F 2 "Resistors_THT:R_Axial_DIN0207_L6.3mm_D2.5mm_P7.62mm_Horizontal" V 8330 3650 50  0001 C CNN
F 3 "" H 8400 3650 50  0000 C CNN
	1    8400 3650
	0    1    1    0   
$EndComp
$Comp
L GND #PWR09
U 1 1 58798BA4
P 8700 3350
F 0 "#PWR09" H 8700 3100 50  0001 C CNN
F 1 "GND" H 8700 3200 50  0000 C CNN
F 2 "" H 8700 3350 50  0000 C CNN
F 3 "" H 8700 3350 50  0000 C CNN
	1    8700 3350
	0    -1   -1   0   
$EndComp
$Comp
L R R10
U 1 1 58798BB8
P 8000 5100
F 0 "R10" V 8080 5100 50  0000 C CNN
F 1 "1k" V 8000 5100 50  0000 C CNN
F 2 "Resistors_THT:R_Axial_DIN0207_L6.3mm_D2.5mm_P7.62mm_Horizontal" V 7930 5100 50  0001 C CNN
F 3 "" H 8000 5100 50  0000 C CNN
	1    8000 5100
	0    1    1    0   
$EndComp
$Comp
L SW_PUSH_SMALL_H SW6
U 1 1 58798BBE
P 8400 4950
F 0 "SW6" H 8480 5060 50  0000 C CNN
F 1 "SW_SELECT" H 8400 5200 50  0000 C CNN
F 2 "Buttons_Switches_THT:SW_PUSH_6mm_h8.5mm" H 8400 5150 50  0001 C CNN
F 3 "" H 8400 5150 50  0000 C CNN
	1    8400 4950
	1    0    0    -1  
$EndComp
$Comp
L R R15
U 1 1 58798BC4
P 8400 5250
F 0 "R15" V 8480 5250 50  0000 C CNN
F 1 "1k" V 8400 5250 50  0000 C CNN
F 2 "Resistors_THT:R_Axial_DIN0207_L6.3mm_D2.5mm_P7.62mm_Horizontal" V 8330 5250 50  0001 C CNN
F 3 "" H 8400 5250 50  0000 C CNN
	1    8400 5250
	0    1    1    0   
$EndComp
$Comp
L GND #PWR010
U 1 1 58798BCA
P 8700 4950
F 0 "#PWR010" H 8700 4700 50  0001 C CNN
F 1 "GND" H 8700 4800 50  0000 C CNN
F 2 "" H 8700 4950 50  0000 C CNN
F 3 "" H 8700 4950 50  0000 C CNN
	1    8700 4950
	0    -1   -1   0   
$EndComp
Text Label 7650 1900 2    60   ~ 0
PLAY/PAUSE
Text Label 7650 2700 2    60   ~ 0
STOP
Text Label 7650 3500 2    60   ~ 0
ADD
Text Label 7650 5100 2    60   ~ 0
SELECT
$Comp
L buzzer BZ1
U 1 1 5879B4A0
P 5800 5300
F 0 "BZ1" H 5875 5350 50  0000 L CNN
F 1 "buzzer" H 5875 5250 50  0000 L CNN
F 2 "Buzzers_Beepers:BUZZER" H 5800 5300 60  0001 C CNN
F 3 "" H 5800 5300 60  0000 C CNN
	1    5800 5300
	1    0    0    -1  
$EndComp
$Comp
L R R4
U 1 1 5879B667
P 5150 5700
F 0 "R4" V 5230 5700 50  0000 C CNN
F 1 "1k" V 5150 5700 50  0000 C CNN
F 2 "Resistors_THT:R_Axial_DIN0207_L6.3mm_D2.5mm_P7.62mm_Horizontal" V 5080 5700 50  0001 C CNN
F 3 "" H 5150 5700 50  0000 C CNN
	1    5150 5700
	0    1    1    0   
$EndComp
Text Label 4800 5700 2    60   ~ 0
BUZZER
$Comp
L GND #PWR011
U 1 1 5879BF6F
P 5750 6000
F 0 "#PWR011" H 5750 5750 50  0001 C CNN
F 1 "GND" H 5750 5850 50  0000 C CNN
F 2 "" H 5750 6000 50  0000 C CNN
F 3 "" H 5750 6000 50  0000 C CNN
	1    5750 6000
	1    0    0    -1  
$EndComp
$Comp
L D D1
U 1 1 5879C22F
P 2300 5650
F 0 "D1" H 2300 5750 50  0000 C CNN
F 1 "D" H 2300 5550 50  0000 C CNN
F 2 "Diodes_THT:D_DO-41_SOD81_P7.62mm_Horizontal" H 2300 5650 50  0001 C CNN
F 3 "" H 2300 5650 50  0000 C CNN
	1    2300 5650
	0    1    1    0   
$EndComp
$Comp
L GND #PWR012
U 1 1 5879CA04
P 2300 6450
F 0 "#PWR012" H 2300 6200 50  0001 C CNN
F 1 "GND" H 2300 6300 50  0000 C CNN
F 2 "" H 2300 6450 50  0000 C CNN
F 3 "" H 2300 6450 50  0000 C CNN
	1    2300 6450
	1    0    0    -1  
$EndComp
$Comp
L R R1
U 1 1 5879CAE6
P 1750 6150
F 0 "R1" V 1830 6150 50  0000 C CNN
F 1 "1k" V 1750 6150 50  0000 C CNN
F 2 "Resistors_THT:R_Axial_DIN0207_L6.3mm_D2.5mm_P7.62mm_Horizontal" V 1680 6150 50  0001 C CNN
F 3 "" H 1750 6150 50  0000 C CNN
	1    1750 6150
	0    1    1    0   
$EndComp
Text Label 1400 6150 2    60   ~ 0
RELAY
$Comp
L +5V #PWR013
U 1 1 5879E6CB
P 5400 2800
F 0 "#PWR013" H 5400 2650 50  0001 C CNN
F 1 "+5V" H 5400 2940 50  0000 C CNN
F 2 "" H 5400 2800 50  0000 C CNN
F 3 "" H 5400 2800 50  0000 C CNN
	1    5400 2800
	0    -1   -1   0   
$EndComp
$Comp
L +5V #PWR014
U 1 1 5879E74B
P 8700 2050
F 0 "#PWR014" H 8700 1900 50  0001 C CNN
F 1 "+5V" H 8700 2190 50  0000 C CNN
F 2 "" H 8700 2050 50  0000 C CNN
F 3 "" H 8700 2050 50  0000 C CNN
	1    8700 2050
	0    1    1    0   
$EndComp
$Comp
L +5V #PWR015
U 1 1 5879E795
P 8700 2850
F 0 "#PWR015" H 8700 2700 50  0001 C CNN
F 1 "+5V" H 8700 2990 50  0000 C CNN
F 2 "" H 8700 2850 50  0000 C CNN
F 3 "" H 8700 2850 50  0000 C CNN
	1    8700 2850
	0    1    1    0   
$EndComp
$Comp
L +5V #PWR016
U 1 1 5879E7DF
P 8700 3650
F 0 "#PWR016" H 8700 3500 50  0001 C CNN
F 1 "+5V" H 8700 3790 50  0000 C CNN
F 2 "" H 8700 3650 50  0000 C CNN
F 3 "" H 8700 3650 50  0000 C CNN
	1    8700 3650
	0    1    1    0   
$EndComp
$Comp
L +5V #PWR017
U 1 1 5879E895
P 8700 5250
F 0 "#PWR017" H 8700 5100 50  0001 C CNN
F 1 "+5V" H 8700 5390 50  0000 C CNN
F 2 "" H 8700 5250 50  0000 C CNN
F 3 "" H 8700 5250 50  0000 C CNN
	1    8700 5250
	0    1    1    0   
$EndComp
$Comp
L +5V #PWR018
U 1 1 5879E38D
P 1100 2150
F 0 "#PWR018" H 1100 2000 50  0001 C CNN
F 1 "+5V" H 1100 2290 50  0000 C CNN
F 2 "" H 1100 2150 50  0000 C CNN
F 3 "" H 1100 2150 50  0000 C CNN
	1    1100 2150
	0    -1   -1   0   
$EndComp
$Comp
L BARREL_JACK CON1
U 1 1 5879FCD8
P 3150 1350
F 0 "CON1" V 2750 1400 50  0000 C CNN
F 1 "BARREL_JACK" H 3150 1150 50  0000 C CNN
F 2 "Connect:BARREL_JACK" H 3150 1350 50  0001 C CNN
F 3 "" H 3150 1350 50  0000 C CNN
	1    3150 1350
	1    0    0    -1  
$EndComp
$Comp
L GND #PWR019
U 1 1 587A006B
P 3550 1400
F 0 "#PWR019" H 3550 1150 50  0001 C CNN
F 1 "GND" H 3550 1250 50  0000 C CNN
F 2 "" H 3550 1400 50  0000 C CNN
F 3 "" H 3550 1400 50  0000 C CNN
	1    3550 1400
	0    -1   -1   0   
$EndComp
$Comp
L +12V #PWR020
U 1 1 587A0275
P 3900 1250
F 0 "#PWR020" H 3900 1100 50  0001 C CNN
F 1 "+12V" H 3900 1390 50  0000 C CNN
F 2 "" H 3900 1250 50  0000 C CNN
F 3 "" H 3900 1250 50  0000 C CNN
	1    3900 1250
	1    0    0    -1  
$EndComp
$Comp
L +12V #PWR021
U 1 1 587A0723
P 4250 1250
F 0 "#PWR021" H 4250 1100 50  0001 C CNN
F 1 "+12V" H 4250 1390 50  0000 C CNN
F 2 "" H 4250 1250 50  0000 C CNN
F 3 "" H 4250 1250 50  0000 C CNN
	1    4250 1250
	1    0    0    -1  
$EndComp
$Comp
L cap C3
U 1 1 587A0B2A
P 4500 1400
F 0 "C3" H 4550 1500 50  0000 L CNN
F 1 "22uF" H 4550 1300 50  0000 L CNN
F 2 "Capacitors_ThroughHole:C_Radial_D5_L11_P2.5" H 4500 1400 60  0001 C CNN
F 3 "" H 4500 1400 60  0000 C CNN
	1    4500 1400
	1    0    0    -1  
$EndComp
$Comp
L GND #PWR022
U 1 1 587A0EE2
P 5100 1600
F 0 "#PWR022" H 5100 1350 50  0001 C CNN
F 1 "GND" H 5100 1450 50  0000 C CNN
F 2 "" H 5100 1600 50  0000 C CNN
F 3 "" H 5100 1600 50  0000 C CNN
	1    5100 1600
	1    0    0    -1  
$EndComp
$Comp
L GND #PWR023
U 1 1 587A0FEC
P 4500 1600
F 0 "#PWR023" H 4500 1350 50  0001 C CNN
F 1 "GND" H 4500 1450 50  0000 C CNN
F 2 "" H 4500 1600 50  0000 C CNN
F 3 "" H 4500 1600 50  0000 C CNN
	1    4500 1600
	1    0    0    -1  
$EndComp
$Comp
L GND #PWR024
U 1 1 587A1054
P 5650 1600
F 0 "#PWR024" H 5650 1350 50  0001 C CNN
F 1 "GND" H 5650 1450 50  0000 C CNN
F 2 "" H 5650 1600 50  0000 C CNN
F 3 "" H 5650 1600 50  0000 C CNN
	1    5650 1600
	1    0    0    -1  
$EndComp
$Comp
L C_Small C4
U 1 1 587A1755
P 5650 1400
F 0 "C4" H 5660 1470 50  0000 L CNN
F 1 "100nF" H 5660 1320 50  0000 L CNN
F 2 "Capacitors_ThroughHole:C_Disc_D6_P5" H 5650 1400 50  0001 C CNN
F 3 "" H 5650 1400 50  0000 C CNN
	1    5650 1400
	1    0    0    -1  
$EndComp
$Comp
L CP C2
U 1 1 587A27B5
P 3400 700
F 0 "C2" H 3425 800 50  0000 L CNN
F 1 "2200uF" V 3250 600 50  0000 L CNN
F 2 "Capacitors_THT:CP_Radial_D10.0mm_P7.50mm" H 3438 550 50  0001 C CNN
F 3 "" H 3400 700 50  0000 C CNN
	1    3400 700 
	0    1    1    0   
$EndComp
$Comp
L GND #PWR025
U 1 1 587A296D
P 2750 700
F 0 "#PWR025" H 2750 450 50  0001 C CNN
F 1 "GND" H 2750 550 50  0000 C CNN
F 2 "" H 2750 700 50  0000 C CNN
F 3 "" H 2750 700 50  0000 C CNN
	1    2750 700 
	0    1    1    0   
$EndComp
$Comp
L +5V #PWR026
U 1 1 587A7AF5
P 5600 2200
F 0 "#PWR026" H 5600 2050 50  0001 C CNN
F 1 "+5V" H 5600 2340 50  0000 C CNN
F 2 "" H 5600 2200 50  0000 C CNN
F 3 "" H 5600 2200 50  0000 C CNN
	1    5600 2200
	1    0    0    -1  
$EndComp
Text Label 4500 4000 0    60   ~ 0
LCD_D7
Text Label 4500 3900 0    60   ~ 0
LCD_D6
Text Label 4500 3800 0    60   ~ 0
LCD_D5
$Comp
L +5V #PWR027
U 1 1 587A868A
P 5750 5100
F 0 "#PWR027" H 5750 4950 50  0001 C CNN
F 1 "+5V" H 5750 5240 50  0000 C CNN
F 2 "" H 5750 5100 50  0000 C CNN
F 3 "" H 5750 5100 50  0000 C CNN
	1    5750 5100
	1    0    0    -1  
$EndComp
$Comp
L +5V #PWR028
U 1 1 587A883E
P 2300 5400
F 0 "#PWR028" H 2300 5250 50  0001 C CNN
F 1 "+5V" H 2300 5540 50  0000 C CNN
F 2 "" H 2300 5400 50  0000 C CNN
F 3 "" H 2300 5400 50  0000 C CNN
	1    2300 5400
	1    0    0    -1  
$EndComp
$Comp
L +12V #PWR029
U 1 1 587A91E9
P 900 950
F 0 "#PWR029" H 900 800 50  0001 C CNN
F 1 "+12V" H 900 1090 50  0000 C CNN
F 2 "" H 900 950 50  0000 C CNN
F 3 "" H 900 950 50  0000 C CNN
	1    900  950 
	1    0    0    -1  
$EndComp
$Comp
L GND #PWR030
U 1 1 587A925D
P 1250 1150
F 0 "#PWR030" H 1250 900 50  0001 C CNN
F 1 "GND" H 1250 1000 50  0000 C CNN
F 2 "" H 1250 1150 50  0000 C CNN
F 3 "" H 1250 1150 50  0000 C CNN
	1    1250 1150
	1    0    0    -1  
$EndComp
$Comp
L PWR_FLAG #FLG031
U 1 1 587A9331
P 900 1100
F 0 "#FLG031" H 900 1195 50  0001 C CNN
F 1 "PWR_FLAG" H 900 1280 50  0000 C CNN
F 2 "" H 900 1100 50  0000 C CNN
F 3 "" H 900 1100 50  0000 C CNN
	1    900  1100
	-1   0    0    1   
$EndComp
$Comp
L PWR_FLAG #FLG032
U 1 1 587A94C6
P 1250 950
F 0 "#FLG032" H 1250 1045 50  0001 C CNN
F 1 "PWR_FLAG" H 1250 1130 50  0000 C CNN
F 2 "" H 1250 950 50  0000 C CNN
F 3 "" H 1250 950 50  0000 C CNN
	1    1250 950 
	1    0    0    -1  
$EndComp
$Comp
L R R9
U 1 1 587AA02A
P 8000 4300
F 0 "R9" V 8080 4300 50  0000 C CNN
F 1 "1k" V 8000 4300 50  0000 C CNN
F 2 "Resistors_THT:R_Axial_DIN0207_L6.3mm_D2.5mm_P7.62mm_Horizontal" V 7930 4300 50  0001 C CNN
F 3 "" H 8000 4300 50  0000 C CNN
	1    8000 4300
	0    1    1    0   
$EndComp
$Comp
L SW_PUSH_SMALL_H SW5
U 1 1 587AA030
P 8400 4150
F 0 "SW5" H 8480 4260 50  0000 C CNN
F 1 "SW_SUB" H 8400 4400 50  0000 C CNN
F 2 "Buttons_Switches_THT:SW_PUSH_6mm_h8.5mm" H 8400 4350 50  0001 C CNN
F 3 "" H 8400 4350 50  0000 C CNN
	1    8400 4150
	1    0    0    -1  
$EndComp
$Comp
L R R14
U 1 1 587AA036
P 8400 4450
F 0 "R14" V 8480 4450 50  0000 C CNN
F 1 "1k" V 8400 4450 50  0000 C CNN
F 2 "Resistors_THT:R_Axial_DIN0207_L6.3mm_D2.5mm_P7.62mm_Horizontal" V 8330 4450 50  0001 C CNN
F 3 "" H 8400 4450 50  0000 C CNN
	1    8400 4450
	0    1    1    0   
$EndComp
$Comp
L GND #PWR033
U 1 1 587AA03C
P 8700 4150
F 0 "#PWR033" H 8700 3900 50  0001 C CNN
F 1 "GND" H 8700 4000 50  0000 C CNN
F 2 "" H 8700 4150 50  0000 C CNN
F 3 "" H 8700 4150 50  0000 C CNN
	1    8700 4150
	0    -1   -1   0   
$EndComp
$Comp
L +5V #PWR034
U 1 1 587AA043
P 8700 4450
F 0 "#PWR034" H 8700 4300 50  0001 C CNN
F 1 "+5V" H 8700 4590 50  0000 C CNN
F 2 "" H 8700 4450 50  0000 C CNN
F 3 "" H 8700 4450 50  0000 C CNN
	1    8700 4450
	0    1    1    0   
$EndComp
Text Label 7650 4300 2    60   ~ 0
SUB
Wire Notes Line
	2550 1850 6700 1850
Wire Wire Line
	2750 700  3250 700 
Connection ~ 3650 1250
Wire Wire Line
	3650 700  3650 1250
Wire Wire Line
	3550 700  3650 700 
Wire Wire Line
	5650 1500 5650 1600
Wire Wire Line
	5100 1550 5100 1600
Wire Wire Line
	4500 1600 4500 1450
Wire Wire Line
	5650 1000 5650 1300
Connection ~ 5650 1250
Wire Wire Line
	5500 1250 6000 1250
Connection ~ 4500 1250
Wire Wire Line
	4500 1300 4500 1250
Wire Wire Line
	4250 1250 4700 1250
Wire Wire Line
	3450 1250 3900 1250
Connection ~ 3500 1400
Wire Wire Line
	3550 1400 3500 1400
Wire Wire Line
	3500 1450 3450 1450
Wire Wire Line
	3500 1350 3500 1450
Wire Wire Line
	3450 1350 3500 1350
Wire Wire Line
	2300 5500 2300 5400
Wire Wire Line
	1600 6150 1400 6150
Wire Wire Line
	2000 6150 1900 6150
Wire Wire Line
	2300 6350 2300 6450
Connection ~ 2300 5850
Wire Wire Line
	2300 5800 2300 5950
Wire Wire Line
	2300 5850 2700 5850
Wire Wire Line
	5000 5700 4800 5700
Wire Wire Line
	5450 5700 5300 5700
Wire Wire Line
	5750 5900 5750 6000
Wire Wire Line
	5750 5350 5750 5500
Wire Wire Line
	5750 5100 5750 5250
Wire Wire Line
	5650 3100 5600 3100
Wire Wire Line
	8550 5250 8700 5250
Wire Wire Line
	8550 4950 8700 4950
Connection ~ 8200 5100
Wire Wire Line
	8250 4950 8200 4950
Wire Wire Line
	8200 5100 8150 5100
Wire Wire Line
	8200 4950 8200 5250
Wire Wire Line
	8200 5250 8250 5250
Wire Wire Line
	7850 5100 7650 5100
Wire Wire Line
	8550 3650 8700 3650
Wire Wire Line
	8550 3350 8700 3350
Connection ~ 8200 3500
Wire Wire Line
	8250 3350 8200 3350
Wire Wire Line
	8200 3500 8150 3500
Wire Wire Line
	8200 3350 8200 3650
Wire Wire Line
	8200 3650 8250 3650
Wire Wire Line
	7850 3500 7650 3500
Wire Wire Line
	8550 2850 8700 2850
Wire Wire Line
	8550 2550 8700 2550
Connection ~ 8200 2700
Wire Wire Line
	8250 2550 8200 2550
Wire Wire Line
	8200 2700 8150 2700
Wire Wire Line
	8200 2550 8200 2850
Wire Wire Line
	8200 2850 8250 2850
Wire Wire Line
	7850 2700 7650 2700
Wire Wire Line
	8550 2050 8700 2050
Wire Wire Line
	8550 1750 8700 1750
Connection ~ 8200 1900
Wire Wire Line
	8250 1750 8200 1750
Wire Wire Line
	8200 1900 8150 1900
Wire Wire Line
	8200 1750 8200 2050
Wire Wire Line
	8200 2050 8250 2050
Wire Wire Line
	7850 1900 7650 1900
Wire Wire Line
	4300 3400 4500 3400
Wire Wire Line
	4300 3300 4500 3300
Wire Notes Line
	2800 2550 2800 4150
Wire Notes Line
	4450 4150 4450 2550
Wire Wire Line
	4300 3100 4500 3100
Wire Wire Line
	4300 3000 4500 3000
Wire Wire Line
	4300 2900 4500 2900
Wire Wire Line
	4300 2800 4500 2800
Wire Wire Line
	4300 2700 4500 2700
Connection ~ 1550 2150
Wire Wire Line
	1550 2350 1850 2350
Wire Wire Line
	1550 2150 1550 2350
Wire Wire Line
	2000 2150 1900 2150
Wire Wire Line
	1500 2150 1600 2150
Wire Wire Line
	1200 2150 1100 2150
Wire Wire Line
	1600 3400 1850 3400
Connection ~ 1600 2850
Wire Wire Line
	1600 2850 1850 2850
Wire Wire Line
	1400 2800 1350 2800
Wire Wire Line
	1400 3400 1350 3400
Wire Wire Line
	1600 3250 1600 3400
Wire Wire Line
	1600 2950 1600 2800
Wire Wire Line
	2900 2700 2700 2700
Wire Wire Line
	2900 3100 2700 3100
Wire Wire Line
	2900 2900 2700 2900
Connection ~ 5600 2650
Wire Wire Line
	5600 2700 5650 2700
Wire Wire Line
	5600 2650 5500 2650
Wire Wire Line
	5600 2550 5600 2700
Wire Wire Line
	5100 2900 5650 2900
Wire Wire Line
	5100 2400 5100 2900
Wire Wire Line
	5450 2400 5100 2400
Wire Wire Line
	5600 2200 5600 2250
Wire Wire Line
	3600 2250 3600 2400
Wire Wire Line
	5400 2800 5650 2800
Wire Wire Line
	3600 4300 3600 4450
Wire Wire Line
	4300 3500 4500 3500
Wire Wire Line
	4500 3600 4300 3600
Wire Wire Line
	5650 3000 5450 3000
Wire Wire Line
	5650 3200 5450 3200
Wire Wire Line
	5650 3600 5550 3600
Wire Wire Line
	5650 3500 5550 3500
Wire Wire Line
	5550 3400 5650 3400
Wire Wire Line
	5650 3300 5550 3300
Wire Wire Line
	5650 3700 5450 3700
Wire Wire Line
	5650 3800 5450 3800
Wire Wire Line
	5650 3900 5450 3900
Wire Wire Line
	5450 4000 5650 4000
Wire Wire Line
	4300 3700 4500 3700
Wire Wire Line
	4300 3800 4500 3800
Wire Wire Line
	4300 3900 4500 3900
Wire Wire Line
	4300 4000 4500 4000
Wire Wire Line
	900  950  900  1100
Wire Wire Line
	1250 950  1250 1150
Wire Wire Line
	8550 4450 8700 4450
Wire Wire Line
	8550 4150 8700 4150
Connection ~ 8200 4300
Wire Wire Line
	8250 4150 8200 4150
Wire Wire Line
	8200 4300 8150 4300
Wire Wire Line
	8200 4150 8200 4450
Wire Wire Line
	8200 4450 8250 4450
Wire Wire Line
	7850 4300 7650 4300
$Comp
L +12V #PWR035
U 1 1 587ADA92
P 2950 5900
F 0 "#PWR035" H 2950 5750 50  0001 C CNN
F 1 "+12V" H 2950 6040 50  0000 C CNN
F 2 "" H 2950 5900 50  0000 C CNN
F 3 "" H 2950 5900 50  0000 C CNN
	1    2950 5900
	-1   0    0    1   
$EndComp
$Comp
L LM7805CT U2
U 1 1 587AE4B4
P 5100 1300
F 0 "U2" H 4900 1500 50  0000 C CNN
F 1 "LM7805CT" H 5100 1500 50  0000 L CNN
F 2 "Power_Integrations:TO-220" H 5150 1600 50  0000 C CIN
F 3 "" H 5100 1300 50  0000 C CNN
	1    5100 1300
	1    0    0    -1  
$EndComp
Text Notes 2900 1700 0    60   ~ 0
Ojo Patillas jack
$Comp
L GND #PWR036
U 1 1 587AF544
P 5450 4200
F 0 "#PWR036" H 5450 3950 50  0001 C CNN
F 1 "GND" H 5450 4050 50  0000 C CNN
F 2 "" H 5450 4200 50  0000 C CNN
F 3 "" H 5450 4200 50  0000 C CNN
	1    5450 4200
	1    0    0    -1  
$EndComp
Wire Wire Line
	5650 4200 5450 4200
$Comp
L R R3
U 1 1 587AF844
P 5150 4250
F 0 "R3" V 5230 4250 50  0000 C CNN
F 1 "220" V 5150 4250 50  0000 C CNN
F 2 "Resistors_THT:R_Axial_DIN0207_L6.3mm_D2.5mm_P7.62mm_Horizontal" V 5080 4250 50  0001 C CNN
F 3 "" H 5150 4250 50  0000 C CNN
	1    5150 4250
	1    0    0    1   
$EndComp
Wire Wire Line
	5650 4100 5150 4100
$Comp
L +5V #PWR037
U 1 1 587AFBCF
P 5150 4450
F 0 "#PWR037" H 5150 4300 50  0001 C CNN
F 1 "+5V" H 5150 4590 50  0000 C CNN
F 2 "" H 5150 4450 50  0000 C CNN
F 3 "" H 5150 4450 50  0000 C CNN
	1    5150 4450
	-1   0    0    1   
$EndComp
Wire Wire Line
	5150 4400 5150 4450
$Comp
L +5V #PWR038
U 1 1 5879E1FF
P 3600 2250
F 0 "#PWR038" H 3600 2100 50  0001 C CNN
F 1 "+5V" H 3600 2390 50  0000 C CNN
F 2 "" H 3600 2250 50  0000 C CNN
F 3 "" H 3600 2250 50  0000 C CNN
	1    3600 2250
	1    0    0    -1  
$EndComp
$Comp
L +5V #PWR039
U 1 1 587A1C88
P 6000 1250
F 0 "#PWR039" H 6000 1100 50  0001 C CNN
F 1 "+5V" H 6000 1390 50  0000 C CNN
F 2 "" H 6000 1250 50  0000 C CNN
F 3 "" H 6000 1250 50  0000 C CNN
	1    6000 1250
	0    1    1    0   
$EndComp
Wire Notes Line
	7700 5350 7700 1750
Wire Wire Line
	2300 5450 2700 5450
Connection ~ 2300 5450
$Sheet
S 3750 6150 1600 1250
U 587C072E
F0 "hoja-matriz-ledsUV" 60
F1 "matriz-ledsUV.sch" 60
$EndSheet
$Comp
L R R2
U 1 1 587C13E8
P 3400 900
F 0 "R2" V 3480 900 50  0000 C CNN
F 1 "1.5k" V 3400 900 50  0000 C CNN
F 2 "Resistors_THT:R_Axial_DIN0207_L6.3mm_D2.5mm_P7.62mm_Horizontal" V 3330 900 50  0001 C CNN
F 3 "" H 3400 900 50  0000 C CNN
	1    3400 900 
	0    1    1    0   
$EndComp
$Comp
L LED-RESCUE-insoladora_v1 D2
U 1 1 587C148D
P 3000 900
F 0 "D2" H 3000 1000 50  0000 C CNN
F 1 "LED_12V" H 3000 800 50  0000 C CNN
F 2 "LEDs:LED-5MM" H 3000 900 50  0001 C CNN
F 3 "" H 3000 900 50  0000 C CNN
	1    3000 900 
	1    0    0    -1  
$EndComp
Wire Wire Line
	3250 900  3200 900 
Wire Wire Line
	3550 900  3650 900 
Connection ~ 3650 900 
Wire Wire Line
	2800 900  2800 700 
Connection ~ 2800 700 
$Comp
L R R5
U 1 1 587C2EA0
P 5800 1000
F 0 "R5" V 5880 1000 50  0000 C CNN
F 1 "1k" V 5800 1000 50  0000 C CNN
F 2 "Resistors_THT:R_Axial_DIN0207_L6.3mm_D2.5mm_P7.62mm_Horizontal" V 5730 1000 50  0001 C CNN
F 3 "" H 5800 1000 50  0000 C CNN
	1    5800 1000
	0    1    1    0   
$EndComp
$Comp
L LED-RESCUE-insoladora_v1 D3
U 1 1 587C2F15
P 6200 1000
F 0 "D3" H 6200 1100 50  0000 C CNN
F 1 "LED_5V" H 6200 900 50  0000 C CNN
F 2 "LEDs:LED-5MM" H 6200 1000 50  0001 C CNN
F 3 "" H 6200 1000 50  0000 C CNN
	1    6200 1000
	-1   0    0    1   
$EndComp
$Comp
L GND #PWR040
U 1 1 587C32FF
P 6450 1000
F 0 "#PWR040" H 6450 750 50  0001 C CNN
F 1 "GND" H 6450 850 50  0000 C CNN
F 2 "" H 6450 1000 50  0000 C CNN
F 3 "" H 6450 1000 50  0000 C CNN
	1    6450 1000
	0    -1   -1   0   
$EndComp
Wire Wire Line
	6450 1000 6400 1000
Wire Wire Line
	6000 1000 5950 1000
Wire Notes Line
	2550 1850 2550 600 
Wire Notes Line
	6700 1850 6700 600 
Wire Notes Line
	3700 6050 5400 6050
Wire Notes Line
	5400 6050 5400 7500
Wire Notes Line
	5400 7500 3700 7500
Wire Notes Line
	3700 7500 3700 6050
$Comp
L PN2222A Q2
U 1 1 587C4EED
P 5650 5700
F 0 "Q2" H 5850 5775 50  0000 L CNN
F 1 "PN2222A" H 5850 5700 50  0000 L CNN
F 2 "TO_SOT_Packages_THT:TO-92_Inline_Wide" H 5850 5625 50  0001 L CIN
F 3 "" H 5650 5700 50  0000 L CNN
	1    5650 5700
	1    0    0    -1  
$EndComp
$Comp
L PN2222A Q1
U 1 1 587C5221
P 2200 6150
F 0 "Q1" H 2400 6225 50  0000 L CNN
F 1 "PN2222A" H 2400 6150 50  0000 L CNN
F 2 "TO_SOT_Packages_THT:TO-92_Inline_Wide" H 2400 6075 50  0001 L CIN
F 3 "" H 2200 6150 50  0000 L CNN
	1    2200 6150
	1    0    0    -1  
$EndComp
Wire Wire Line
	2950 5850 2950 5900
$Comp
L RELAY_HJR-3FF_H RLY1
U 1 1 587D0B3E
P 2850 5650
F 0 "RLY1" H 2850 5900 60  0000 C CNN
F 1 "RELAY" H 2850 5415 60  0000 C CNN
F 2 "Relays_ThroughHole:Relay_SANYOU_SRD_Series_Form_C" H 2850 5650 60  0001 C CNN
F 3 "" H 2850 5650 60  0000 C CNN
	1    2850 5650
	0    -1   -1   0   
$EndComp
$Comp
L CONN_01X02 P1
U 1 1 587D2202
P 3200 5300
F 0 "P1" H 3200 5450 50  0000 C CNN
F 1 "12V-GND" V 3300 5300 50  0000 C CNN
F 2 "Pin_Headers:Pin_Header_Straight_1x02" H 3200 5300 50  0001 C CNN
F 3 "" H 3200 5300 50  0000 C CNN
	1    3200 5300
	1    0    0    -1  
$EndComp
Wire Wire Line
	3000 5350 3000 5450
Wire Wire Line
	3000 5250 3000 5100
$Comp
L GND #PWR041
U 1 1 587D2652
P 3000 5100
F 0 "#PWR041" H 3000 4850 50  0001 C CNN
F 1 "GND" H 3000 4950 50  0000 C CNN
F 2 "" H 3000 5100 50  0000 C CNN
F 3 "" H 3000 5100 50  0000 C CNN
	1    3000 5100
	-1   0    0    1   
$EndComp
$EndSCHEMATC
