(export (version D)
  (design
    (source /home/fandres/rootdevel/proyectos/Insoladora_v1/KiCad[PCB]/insoladora_v1.sch)
    (date "sáb 04 feb 2017 16:45:57 COT")
    (tool "Eeschema 4.0.4+dfsg1-stable")
    (sheet (number 1) (name /) (tstamps /)
      (title_block
        (title Insoldara)
        (company Rootdevel)
        (rev 1)
        (date)
        (source insoladora_v1.sch)
        (comment (number 1) (value Hackersapce))
        (comment (number 2) (value @fAndrEs))
        (comment (number 3) (value @mau_rinc2010))
        (comment (number 4) (value ""))))
    (sheet (number 2) (name /hoja-matriz-ledsUV/) (tstamps /587C072E/)
      (title_block
        (title "Insoladora (Matriz Leds UV)")
        (company Rootdevel)
        (rev 1)
        (date)
        (source matriz-ledsUV.sch)
        (comment (number 1) (value Hackersapce))
        (comment (number 2) (value @fAnDrEs))
        (comment (number 3) (value @mau_rinc2010))
        (comment (number 4) (value "")))))
  (components
    (comp (ref U1)
      (value PIC16F84A)
      (footprint Housings_DIP:DIP-18_W7.62mm_Socket)
      (libsource (lib insoladora_v1-cache) (part PIC16F84A-XX/P-RESCUE-insoladora_v1))
      (sheetpath (names /) (tstamps /))
      (tstamp 587951BF))
    (comp (ref DS1)
      (value LCD-16X2)
      (footprint Connectors_JST:JST_PH_S16B-PH-K_16x2.00mm_Angled)
      (libsource (lib display) (part LCD-016N002L))
      (sheetpath (names /) (tstamps /))
      (tstamp 5879582B))
    (comp (ref RV1)
      (value POT)
      (footprint Potentiometers:Potentiometer_Bourns_3296W_3-8Zoll_Inline_ScrewUp)
      (libsource (lib insoladora_v1-rescue) (part POT-RESCUE-insoladora_v1))
      (sheetpath (names /) (tstamps /))
      (tstamp 58796186))
    (comp (ref Y1)
      (value Crystal)
      (footprint Crystals:Crystal_HC49-4H_Vertical)
      (libsource (lib device) (part Crystal))
      (sheetpath (names /) (tstamps /))
      (tstamp 58796BFD))
    (comp (ref 22uF1)
      (value 22uF)
      (footprint Capacitors_ThroughHole:C_Disc_D3_P2.5)
      (libsource (lib device) (part C_Small))
      (sheetpath (names /) (tstamps /))
      (tstamp 58796C2A))
    (comp (ref C1)
      (value 22uF)
      (footprint Capacitors_ThroughHole:C_Disc_D3_P2.5)
      (libsource (lib device) (part C_Small))
      (sheetpath (names /) (tstamps /))
      (tstamp 58796C61))
    (comp (ref 10k1)
      (value 10k)
      (footprint Resistors_THT:R_Axial_DIN0207_L6.3mm_D2.5mm_P7.62mm_Horizontal)
      (libsource (lib device) (part R))
      (sheetpath (names /) (tstamps /))
      (tstamp 5879700F))
    (comp (ref SW1)
      (value SW_MCLR)
      (footprint Buttons_Switches_THT:SW_PUSH_6mm_h8.5mm)
      (libsource (lib device) (part SW_PUSH_SMALL_H))
      (sheetpath (names /) (tstamps /))
      (tstamp 58797036))
    (comp (ref R6)
      (value 1k)
      (footprint Resistors_THT:R_Axial_DIN0207_L6.3mm_D2.5mm_P7.62mm_Horizontal)
      (libsource (lib device) (part R))
      (sheetpath (names /) (tstamps /))
      (tstamp 58797DB7))
    (comp (ref SW2)
      (value SW_PLAY)
      (footprint Measurement_Points:Test_Point_2Pads)
      (libsource (lib device) (part SW_PUSH_SMALL_H))
      (sheetpath (names /) (tstamps /))
      (tstamp 58797E21))
    (comp (ref R11)
      (value 1k)
      (footprint Resistors_THT:R_Axial_DIN0207_L6.3mm_D2.5mm_P7.62mm_Horizontal)
      (libsource (lib device) (part R))
      (sheetpath (names /) (tstamps /))
      (tstamp 58797EC2))
    (comp (ref R7)
      (value 1k)
      (footprint Resistors_THT:R_Axial_DIN0207_L6.3mm_D2.5mm_P7.62mm_Horizontal)
      (libsource (lib device) (part R))
      (sheetpath (names /) (tstamps /))
      (tstamp 5879869C))
    (comp (ref SW3)
      (value SW_STOP)
      (footprint Measurement_Points:Test_Point_2Pads)
      (libsource (lib device) (part SW_PUSH_SMALL_H))
      (sheetpath (names /) (tstamps /))
      (tstamp 587986A2))
    (comp (ref R12)
      (value 1k)
      (footprint Resistors_THT:R_Axial_DIN0207_L6.3mm_D2.5mm_P7.62mm_Horizontal)
      (libsource (lib device) (part R))
      (sheetpath (names /) (tstamps /))
      (tstamp 587986A8))
    (comp (ref R8)
      (value 1k)
      (footprint Resistors_THT:R_Axial_DIN0207_L6.3mm_D2.5mm_P7.62mm_Horizontal)
      (libsource (lib device) (part R))
      (sheetpath (names /) (tstamps /))
      (tstamp 58798B92))
    (comp (ref SW4)
      (value SW_ADD)
      (footprint Measurement_Points:Test_Point_2Pads)
      (libsource (lib device) (part SW_PUSH_SMALL_H))
      (sheetpath (names /) (tstamps /))
      (tstamp 58798B98))
    (comp (ref R13)
      (value 1k)
      (footprint Resistors_THT:R_Axial_DIN0207_L6.3mm_D2.5mm_P7.62mm_Horizontal)
      (libsource (lib device) (part R))
      (sheetpath (names /) (tstamps /))
      (tstamp 58798B9E))
    (comp (ref R10)
      (value 1k)
      (footprint Resistors_THT:R_Axial_DIN0207_L6.3mm_D2.5mm_P7.62mm_Horizontal)
      (libsource (lib device) (part R))
      (sheetpath (names /) (tstamps /))
      (tstamp 58798BB8))
    (comp (ref SW6)
      (value SW_SELECT)
      (footprint Measurement_Points:Test_Point_2Pads)
      (libsource (lib device) (part SW_PUSH_SMALL_H))
      (sheetpath (names /) (tstamps /))
      (tstamp 58798BBE))
    (comp (ref R15)
      (value 1k)
      (footprint Resistors_THT:R_Axial_DIN0207_L6.3mm_D2.5mm_P7.62mm_Horizontal)
      (libsource (lib device) (part R))
      (sheetpath (names /) (tstamps /))
      (tstamp 58798BC4))
    (comp (ref BZ1)
      (value buzzer)
      (footprint Buzzers_Beepers:MagneticBuzzer_Kingstate_KCG0601)
      (libsource (lib w_device) (part buzzer))
      (sheetpath (names /) (tstamps /))
      (tstamp 5879B4A0))
    (comp (ref R4)
      (value 1k)
      (footprint Resistors_THT:R_Axial_DIN0207_L6.3mm_D2.5mm_P7.62mm_Horizontal)
      (libsource (lib device) (part R))
      (sheetpath (names /) (tstamps /))
      (tstamp 5879B667))
    (comp (ref D1)
      (value D)
      (footprint Diodes_THT:D_DO-41_SOD81_P7.62mm_Horizontal)
      (libsource (lib device) (part D))
      (sheetpath (names /) (tstamps /))
      (tstamp 5879C22F))
    (comp (ref R1)
      (value 1k)
      (footprint Resistors_THT:R_Axial_DIN0207_L6.3mm_D2.5mm_P7.62mm_Horizontal)
      (libsource (lib device) (part R))
      (sheetpath (names /) (tstamps /))
      (tstamp 5879CAE6))
    (comp (ref CON1)
      (value BARREL_JACK)
      (footprint Connect:BARREL_JACK)
      (libsource (lib conn) (part BARREL_JACK))
      (sheetpath (names /) (tstamps /))
      (tstamp 5879FCD8))
    (comp (ref C3)
      (value 22uF)
      (footprint Capacitors_ThroughHole:C_Radial_D5_L11_P2.5)
      (libsource (lib w_device) (part cap))
      (sheetpath (names /) (tstamps /))
      (tstamp 587A0B2A))
    (comp (ref C4)
      (value 100nF)
      (footprint Capacitors_ThroughHole:C_Disc_D6_P5)
      (libsource (lib device) (part C_Small))
      (sheetpath (names /) (tstamps /))
      (tstamp 587A1755))
    (comp (ref C2)
      (value 2200uF)
      (footprint Capacitors_THT:CP_Radial_D10.0mm_P7.50mm)
      (libsource (lib device) (part CP))
      (sheetpath (names /) (tstamps /))
      (tstamp 587A27B5))
    (comp (ref R9)
      (value 1k)
      (footprint Resistors_THT:R_Axial_DIN0207_L6.3mm_D2.5mm_P7.62mm_Horizontal)
      (libsource (lib device) (part R))
      (sheetpath (names /) (tstamps /))
      (tstamp 587AA02A))
    (comp (ref SW5)
      (value SW_SUB)
      (footprint Measurement_Points:Test_Point_2Pads)
      (libsource (lib device) (part SW_PUSH_SMALL_H))
      (sheetpath (names /) (tstamps /))
      (tstamp 587AA030))
    (comp (ref R14)
      (value 1k)
      (footprint Resistors_THT:R_Axial_DIN0207_L6.3mm_D2.5mm_P7.62mm_Horizontal)
      (libsource (lib device) (part R))
      (sheetpath (names /) (tstamps /))
      (tstamp 587AA036))
    (comp (ref U2)
      (value LM7805CT)
      (footprint Power_Integrations:TO-220)
      (libsource (lib regul) (part LM7805CT))
      (sheetpath (names /) (tstamps /))
      (tstamp 587AE4B4))
    (comp (ref R3)
      (value 220)
      (footprint Resistors_THT:R_Axial_DIN0207_L6.3mm_D2.5mm_P7.62mm_Horizontal)
      (libsource (lib device) (part R))
      (sheetpath (names /) (tstamps /))
      (tstamp 587AF844))
    (comp (ref R2)
      (value 1.5k)
      (footprint Resistors_THT:R_Axial_DIN0207_L6.3mm_D2.5mm_P7.62mm_Horizontal)
      (libsource (lib device) (part R))
      (sheetpath (names /) (tstamps /))
      (tstamp 587C13E8))
    (comp (ref D2)
      (value LED_12V)
      (footprint LEDs:LED-5MM)
      (libsource (lib insoladora_v1-rescue) (part LED-RESCUE-insoladora_v1))
      (sheetpath (names /) (tstamps /))
      (tstamp 587C148D))
    (comp (ref R5)
      (value 1k)
      (footprint Resistors_THT:R_Axial_DIN0207_L6.3mm_D2.5mm_P7.62mm_Horizontal)
      (libsource (lib device) (part R))
      (sheetpath (names /) (tstamps /))
      (tstamp 587C2EA0))
    (comp (ref D3)
      (value LED_5V)
      (footprint LEDs:LED-5MM)
      (libsource (lib insoladora_v1-rescue) (part LED-RESCUE-insoladora_v1))
      (sheetpath (names /) (tstamps /))
      (tstamp 587C2F15))
    (comp (ref Q2)
      (value PN2222A)
      (footprint TO_SOT_Packages_THT:TO-92_Inline_Wide)
      (libsource (lib transistors) (part PN2222A))
      (sheetpath (names /) (tstamps /))
      (tstamp 587C4EED))
    (comp (ref Q1)
      (value PN2222A)
      (footprint TO_SOT_Packages_THT:TO-92_Inline_Wide)
      (libsource (lib transistors) (part PN2222A))
      (sheetpath (names /) (tstamps /))
      (tstamp 587C5221))
    (comp (ref RLY1)
      (value RELAY)
      (footprint Relays_ThroughHole:Relay_SANYOU_SRD_Series_Form_C)
      (libsource (lib w_relay) (part RELAY_HJR-3FF_H))
      (sheetpath (names /) (tstamps /))
      (tstamp 587D0B3E))
    (comp (ref P1)
      (value 12V-GND)
      (footprint Pin_Headers:Pin_Header_Straight_1x02)
      (libsource (lib conn) (part CONN_01X02))
      (sheetpath (names /) (tstamps /))
      (tstamp 587D2202)))
  (libparts
    (libpart (lib conn) (part BARREL_JACK)
      (description "DC Barrel Jack")
      (fields
        (field (name Reference) CON)
        (field (name Value) BARREL_JACK))
      (pins
        (pin (num 1) (name ~) (type passive))
        (pin (num 2) (name ~) (type passive))
        (pin (num 3) (name ~) (type passive))))
    (libpart (lib conn) (part CONN_01X02)
      (description "Connector, single row, 01x02")
      (footprints
        (fp Pin_Header_Straight_1X02)
        (fp Pin_Header_Angled_1X02)
        (fp Socket_Strip_Straight_1X02)
        (fp Socket_Strip_Angled_1X02))
      (fields
        (field (name Reference) P)
        (field (name Value) CONN_01X02))
      (pins
        (pin (num 1) (name P1) (type passive))
        (pin (num 2) (name P2) (type passive))))
    (libpart (lib device) (part CP)
      (description "Polarised capacitor")
      (footprints
        (fp CP*)
        (fp C_Axial*)
        (fp C_Radial*)
        (fp TantalC*)
        (fp C*elec)
        (fp c_elec*)
        (fp SMD*_Pol))
      (fields
        (field (name Reference) C)
        (field (name Value) CP))
      (pins
        (pin (num 1) (name ~) (type passive))
        (pin (num 2) (name ~) (type passive))))
    (libpart (lib device) (part C_Small)
      (description "Unpolarized capacitor")
      (footprints
        (fp C?)
        (fp C_????_*)
        (fp C_????)
        (fp SMD*_c)
        (fp Capacitor*))
      (fields
        (field (name Reference) C)
        (field (name Value) C_Small))
      (pins
        (pin (num 1) (name ~) (type passive))
        (pin (num 2) (name ~) (type passive))))
    (libpart (lib device) (part Crystal)
      (description "Two pin crystal")
      (footprints
        (fp Crystal_*))
      (fields
        (field (name Reference) Y)
        (field (name Value) Crystal))
      (pins
        (pin (num 1) (name 1) (type passive))
        (pin (num 2) (name 2) (type passive))))
    (libpart (lib device) (part D)
      (description Diode)
      (footprints
        (fp Diode_*)
        (fp D-Pak_TO252AA)
        (fp *SingleDiode)
        (fp *_Diode_*)
        (fp *SingleDiode*))
      (fields
        (field (name Reference) D)
        (field (name Value) D))
      (pins
        (pin (num 1) (name K) (type passive))
        (pin (num 2) (name A) (type passive))))
    (libpart (lib display) (part LCD16X2)
      (aliases
        (alias LCD-016N002L))
      (description WC1602A0-SFYLYNC06)
      (docs http://www.kamami.pl/dl/wc1602a0.pdf)
      (fields
        (field (name Reference) DS)
        (field (name Value) LCD16X2)
        (field (name Footprint) WC1602A))
      (pins
        (pin (num 1) (name VSS) (type power_in))
        (pin (num 2) (name VDD) (type power_in))
        (pin (num 3) (name VO) (type input))
        (pin (num 4) (name RS) (type input))
        (pin (num 5) (name R/W) (type input))
        (pin (num 6) (name E) (type input))
        (pin (num 7) (name D0) (type input))
        (pin (num 8) (name D1) (type input))
        (pin (num 9) (name D2) (type input))
        (pin (num 10) (name D3) (type input))
        (pin (num 11) (name D4) (type input))
        (pin (num 12) (name D5) (type input))
        (pin (num 13) (name D6) (type input))
        (pin (num 14) (name D7) (type input))
        (pin (num 15) (name LED+) (type passive))
        (pin (num 16) (name LED-) (type passive))))
    (libpart (lib insoladora_v1-rescue) (part LED-RESCUE-insoladora_v1)
      (footprints
        (fp LED-*)
        (fp LED_*))
      (fields
        (field (name Reference) D)
        (field (name Value) LED-RESCUE-insoladora_v1))
      (pins
        (pin (num 1) (name K) (type passive))
        (pin (num 2) (name A) (type passive))))
    (libpart (lib regul) (part LM7805CT)
      (aliases
        (alias LM7806CT)
        (alias LM7808CT)
        (alias LM7809CT)
        (alias LM7810CT)
        (alias LM7812CT)
        (alias LM7815CT)
        (alias LM7818CT)
        (alias LM7824CT)
        (alias LM7806ACT)
        (alias LM7808ACT)
        (alias LM7809ACT)
        (alias LM7810ACT)
        (alias LM7812ACT)
        (alias LM7815ACT)
        (alias LM7818ACT)
        (alias LM7824ACT))
      (description "Positive 1A 35V Linear Regulator, Fixed Output 5V, TO-220")
      (docs http://www.fairchildsemi.com/ds/LM/LM7805.pdf)
      (footprints
        (fp TO*))
      (fields
        (field (name Reference) U)
        (field (name Value) LM7805CT)
        (field (name Footprint) TO-220))
      (pins
        (pin (num 1) (name IN) (type input))
        (pin (num 2) (name GND) (type power_in))
        (pin (num 3) (name OUT) (type power_out))))
    (libpart (lib insoladora_v1-cache) (part PIC16F84A-XX/P-RESCUE-insoladora_v1)
      (footprints
        (fp DIP*)
        (fp PDIP*))
      (fields
        (field (name Reference) U)
        (field (name Value) PIC16F84A-XX/P-RESCUE-insoladora_v1))
      (pins
        (pin (num 1) (name RA2) (type BiDi))
        (pin (num 2) (name RA3) (type BiDi))
        (pin (num 3) (name TOCKI/RA4) (type BiDi))
        (pin (num 4) (name ~MCLR~) (type input))
        (pin (num 5) (name VSS) (type power_in))
        (pin (num 6) (name INT/RB0) (type BiDi))
        (pin (num 7) (name RB1) (type BiDi))
        (pin (num 8) (name RB2) (type BiDi))
        (pin (num 9) (name RB3) (type BiDi))
        (pin (num 10) (name RB4) (type BiDi))
        (pin (num 11) (name RB5) (type BiDi))
        (pin (num 12) (name RB6) (type BiDi))
        (pin (num 13) (name RB7) (type BiDi))
        (pin (num 14) (name VDD) (type input))
        (pin (num 15) (name OSC2/CLKOUT) (type output))
        (pin (num 16) (name OSC1/CLKIN) (type input))
        (pin (num 17) (name RA0) (type BiDi))
        (pin (num 18) (name RA1) (type BiDi))))
    (libpart (lib transistors) (part PN2222A)
      (description "40V Vce, 1A Ic, NPN, General Purpose Transistor, TO-92")
      (docs http://www.fairchildsemi.com/ds/PN/PN2222A.pdf)
      (footprints
        (fp TO-92*))
      (fields
        (field (name Reference) Q)
        (field (name Value) PN2222A))
      (pins
        (pin (num 1) (name E) (type passive))
        (pin (num 2) (name B) (type input))
        (pin (num 3) (name C) (type passive))))
    (libpart (lib insoladora_v1-rescue) (part POT-RESCUE-insoladora_v1)
      (fields
        (field (name Reference) RV)
        (field (name Value) POT-RESCUE-insoladora_v1))
      (pins
        (pin (num 1) (name 1) (type passive))
        (pin (num 2) (name 2) (type passive))
        (pin (num 3) (name 3) (type passive))))
    (libpart (lib device) (part R)
      (description Resistor)
      (footprints
        (fp R_*)
        (fp Resistor_*))
      (fields
        (field (name Reference) R)
        (field (name Value) R))
      (pins
        (pin (num 1) (name ~) (type passive))
        (pin (num 2) (name ~) (type passive))))
    (libpart (lib w_relay) (part RELAY_HJR-3FF_H)
      (description "HJR-3FF Form A relay")
      (footprints
        (fp relay_HJR-3FF_H))
      (fields
        (field (name Reference) RLY)
        (field (name Value) RELAY_HJR-3FF_H))
      (pins
        (pin (num 1) (name ~) (type passive))
        (pin (num 2) (name ~) (type passive))
        (pin (num 3) (name ~) (type passive))
        (pin (num 5) (name ~) (type passive))))
    (libpart (lib device) (part SW_PUSH_SMALL_H)
      (description Button)
      (fields
        (field (name Reference) SW)
        (field (name Value) SW_PUSH_SMALL_H))
      (pins
        (pin (num 1) (name 1) (type passive))
        (pin (num 2) (name 2) (type passive))))
    (libpart (lib w_device) (part buzzer)
      (fields
        (field (name Reference) BZ)
        (field (name Value) buzzer))
      (pins
        (pin (num 1) (name ~) (type passive))
        (pin (num 2) (name ~) (type passive))))
    (libpart (lib w_device) (part cap)
      (fields
        (field (name Reference) C)
        (field (name Value) cap))
      (pins
        (pin (num 1) (name ~) (type passive))
        (pin (num 2) (name ~) (type passive)))))
  (libraries
    (library (logical insoladora_v1-rescue)
      (uri /home/fandres/rootdevel/proyectos/Insoladora_v1/KiCad[PCB]/insoladora_v1-rescue.lib))
    (library (logical device)
      (uri /usr/share/kicad/library/device.lib))
    (library (logical transistors)
      (uri /usr/share/kicad/library/transistors.lib))
    (library (logical conn)
      (uri /usr/share/kicad/library/conn.lib))
    (library (logical regul)
      (uri /usr/share/kicad/library/regul.lib))
    (library (logical w_device)
      (uri /home/fandres/Descargas/Programas/kicad/librerias/Librerias-tutoelectro/library/w_device.lib))
    (library (logical display)
      (uri /usr/share/kicad/library/display.lib))
    (library (logical w_relay)
      (uri /home/fandres/Descargas/Programas/kicad/librerias/Librerias-tutoelectro/library/w_relay.lib))
    (library (logical insoladora_v1-cache)
      (uri /home/fandres/rootdevel/proyectos/Insoladora_v1/KiCad[PCB]/insoladora_v1-cache.lib)))
  (nets
    (net (code 1) (name "Net-(R11-Pad2)")
      (node (ref SW2) (pin 1))
      (node (ref R6) (pin 1))
      (node (ref R11) (pin 2)))
    (net (code 2) (name "Net-(R12-Pad2)")
      (node (ref R12) (pin 2))
      (node (ref R7) (pin 1))
      (node (ref SW3) (pin 1)))
    (net (code 3) (name "Net-(R13-Pad2)")
      (node (ref R13) (pin 2))
      (node (ref SW4) (pin 1))
      (node (ref R8) (pin 1)))
    (net (code 4) (name /MCLR)
      (node (ref 10k1) (pin 1))
      (node (ref U1) (pin 4))
      (node (ref SW1) (pin 1)))
    (net (code 5) (name /OSC2)
      (node (ref C1) (pin 1))
      (node (ref Y1) (pin 2))
      (node (ref U1) (pin 15)))
    (net (code 6) (name /OSC1)
      (node (ref U1) (pin 16))
      (node (ref 22uF1) (pin 2))
      (node (ref Y1) (pin 1)))
    (net (code 7) (name /PLAY/PAUSE)
      (node (ref R6) (pin 2))
      (node (ref U1) (pin 17)))
    (net (code 8) (name /STOP)
      (node (ref U1) (pin 18))
      (node (ref R7) (pin 2)))
    (net (code 9) (name /ADD)
      (node (ref R8) (pin 2))
      (node (ref U1) (pin 1)))
    (net (code 10) (name /SELECT)
      (node (ref U1) (pin 3))
      (node (ref R10) (pin 2)))
    (net (code 11) (name /BUZZER)
      (node (ref R4) (pin 2))
      (node (ref U1) (pin 6)))
    (net (code 12) (name /RELAY)
      (node (ref R1) (pin 2))
      (node (ref U1) (pin 7)))
    (net (code 13) (name /SUB)
      (node (ref R9) (pin 2))
      (node (ref U1) (pin 2)))
    (net (code 14) (name +5V)
      (node (ref RLY1) (pin 5))
      (node (ref C4) (pin 1))
      (node (ref U2) (pin 3))
      (node (ref U1) (pin 14))
      (node (ref R14) (pin 1))
      (node (ref DS1) (pin 2))
      (node (ref 10k1) (pin 2))
      (node (ref R11) (pin 1))
      (node (ref RV1) (pin 3))
      (node (ref D1) (pin 1))
      (node (ref R5) (pin 2))
      (node (ref R13) (pin 1))
      (node (ref BZ1) (pin 1))
      (node (ref R15) (pin 1))
      (node (ref R3) (pin 1))
      (node (ref R12) (pin 1)))
    (net (code 15) (name GND)
      (node (ref SW1) (pin 2))
      (node (ref SW3) (pin 2))
      (node (ref DS1) (pin 5))
      (node (ref SW2) (pin 2))
      (node (ref SW5) (pin 2))
      (node (ref C3) (pin 2))
      (node (ref CON1) (pin 3))
      (node (ref CON1) (pin 2))
      (node (ref SW6) (pin 2))
      (node (ref C4) (pin 2))
      (node (ref C2) (pin 2))
      (node (ref DS1) (pin 1))
      (node (ref DS1) (pin 16))
      (node (ref SW4) (pin 2))
      (node (ref U1) (pin 5))
      (node (ref D3) (pin 1))
      (node (ref U2) (pin 2))
      (node (ref D2) (pin 1))
      (node (ref P1) (pin 1))
      (node (ref Q1) (pin 1))
      (node (ref Q2) (pin 1))
      (node (ref C1) (pin 2))
      (node (ref 22uF1) (pin 1))
      (node (ref RV1) (pin 1)))
    (net (code 16) (name "Net-(R10-Pad1)")
      (node (ref R15) (pin 2))
      (node (ref R10) (pin 1))
      (node (ref SW6) (pin 1)))
    (net (code 17) (name "Net-(BZ1-Pad2)")
      (node (ref BZ1) (pin 2))
      (node (ref Q2) (pin 3)))
    (net (code 18) (name "Net-(Q2-Pad2)")
      (node (ref R4) (pin 1))
      (node (ref Q2) (pin 2)))
    (net (code 19) (name "Net-(D1-Pad2)")
      (node (ref RLY1) (pin 2))
      (node (ref D1) (pin 2))
      (node (ref Q1) (pin 3)))
    (net (code 20) (name "Net-(Q1-Pad2)")
      (node (ref R1) (pin 1))
      (node (ref Q1) (pin 2)))
    (net (code 21) (name "Net-(D3-Pad2)")
      (node (ref D3) (pin 2))
      (node (ref R5) (pin 1)))
    (net (code 22) (name "Net-(D2-Pad2)")
      (node (ref R2) (pin 2))
      (node (ref D2) (pin 2)))
    (net (code 23) (name "Net-(DS1-Pad15)")
      (node (ref R3) (pin 2))
      (node (ref DS1) (pin 15)))
    (net (code 24) (name "Net-(P1-Pad2)")
      (node (ref P1) (pin 2))
      (node (ref RLY1) (pin 3)))
    (net (code 25) (name +12V)
      (node (ref R2) (pin 1))
      (node (ref C2) (pin 1))
      (node (ref RLY1) (pin 1))
      (node (ref C3) (pin 1))
      (node (ref U2) (pin 1))
      (node (ref CON1) (pin 1)))
    (net (code 26) (name /LCD_D5)
      (node (ref DS1) (pin 12))
      (node (ref U1) (pin 11)))
    (net (code 27) (name /LCD_D4)
      (node (ref DS1) (pin 11))
      (node (ref U1) (pin 10)))
    (net (code 28) (name "Net-(DS1-Pad7)")
      (node (ref DS1) (pin 7)))
    (net (code 29) (name "Net-(DS1-Pad8)")
      (node (ref DS1) (pin 8)))
    (net (code 30) (name "Net-(DS1-Pad9)")
      (node (ref DS1) (pin 9)))
    (net (code 31) (name "Net-(DS1-Pad10)")
      (node (ref DS1) (pin 10)))
    (net (code 32) (name /LCD_E)
      (node (ref U1) (pin 9))
      (node (ref DS1) (pin 6)))
    (net (code 33) (name /LCD_RS)
      (node (ref U1) (pin 8))
      (node (ref DS1) (pin 4)))
    (net (code 34) (name /LCD_D6)
      (node (ref U1) (pin 12))
      (node (ref DS1) (pin 13)))
    (net (code 35) (name "Net-(DS1-Pad3)")
      (node (ref RV1) (pin 2))
      (node (ref DS1) (pin 3)))
    (net (code 36) (name "Net-(R14-Pad2)")
      (node (ref SW5) (pin 1))
      (node (ref R14) (pin 2))
      (node (ref R9) (pin 1)))
    (net (code 37) (name /LCD_D7)
      (node (ref U1) (pin 13))
      (node (ref DS1) (pin 14)))))